"","Test","Answer","Value"
"1","Operation Number","Yes","Operation Number Listed in LMS: FN1394"
"2","Project Number","Yes","Project Number Detected: 3186/OC-BL, Type: Ordinary Capital, Country Code: BL"
"3","Project Name","Yes","Project Name Detected: Educational Quality Improvement Program"
"4","Executing Agency","Yes","Executing Agency Detected: Ministry of Education Youth and Sports"
"5","Auditor Name","Yes","Detected Auditor: grant thornton, LMS Auditor: grant thornton"
"6","AFS Completeness","Yes","Parts Identified:  Opinion of the Auditor  Statement of Cumulative Investments  Statement of Cash Flow "
"7","AFS Date","Yes","AFS Date of Audit Detected: 2017-04-28"
"8","Opinion Class","Unqualified","No text detected which would produce anything other than an Unqualified Opinion"
"9","AFS Type","Yes","Project Type Listed in LMS: Private"
"10","Due Date","Yes","Due Date Listed in LMS: 3/31/2017"
"11","Due Date","Yes","Received Date Listed in LMS: 20000"
"12","Due Date","Yes","Modified Due Date Listed in LMS: 07/12/2017"
"13","Justification for Modification","NA","Proceed to Manual: Not a Test Automated by Bot"
"14","Auditor Type","Yes","Auditor Type: IAF (Private)"
"15","Project Status","NA","Proceed to Manual: Not a Test Automated by Bot"
"16","Disbursement Type","Yes","Disbursement Type Detected"
"17","Auditor Location","Yes","Auditor Location Detected: Chartered Accountants Belize City, Belize"
"18","AFS Cut Off Date","Yes","AFS Cut-off Detected:  ended March 31 2017"
"19","Period of Audit","Yes","Period of Coverage Detected: 24 months. Year(s) detected:  2017   2016 "
"20","Auditing Standards","Yes","Auditing Standards Detected:  International Standards on Auditing"
"21","Accounting Standards","Yes","Accounting Standards Detected:  International Ethics Standards Board for Accountants"
"22","Consistency in Standards","NA","Proceed to Manual: Consistency - Auditing Standards Not Detected in Notes to Financial Statements"
"23","Basis of Accounting","Yes","Basis of Accounting Detected: Cash Basis"
"24","Additional Reports","Yes","Additional Reports Detected"
"25","Type of Additional Reports","Yes","Additional Reports Detected: Internal Controls, Report on Compliance, , Assurance Report"
"26","Consistency in Dates","Yes","Additional Report Dates Detected. AFS Date: 2017-04-28, Reports Date: 2017-04-28"
"27","Status Update & Response","Yes","Status Update and/or Program Response Detected"
"28","Type of Internal Control Observations","NA","Proceed to Manual: Not a Test Automated by Bot"
"29","Total Cost of Audit","NA","Proceed to Manual: Not  a Test Automated by Bot"
"30","Total Hours of Audit","NA","Proceed to Manual: Not a Test Automated by Bot"
"31","Report Title","Yes","Report Title Detected: Independent Auditor's Report"
"32","Executing Agency","Yes","Executing Agency Detected: Ministry of Education Youth and Sports"
"33","Entity/Project Audited","Yes","Entity/Project Name Detected: Educational Quality Improvement Program"
"34","Statement of Audit","Yes","Statement that the Financial Statements have been Audited Detected"
"35","Cash Flow & Cumulative Investment Present","Yes","Reference to Statements of Cumulative Investement and Cash Flow Identified in Opinion Page"
"36","Reference to Notes/Policies","Yes","Reference to Notes & Significant Accounting Policies Detected"
"37","Period of Audit","Yes","Period of Coverage Detected: 24 months. Year(s) detected:  2017   2016 "
"38","Auditing Standards","Yes","Statement of Auditing Standards Detected"
"39","Statement of Responsibilities","Yes","Statement of Responsibilities Detected"
"40","Independence & Ethics","Yes","Statement of Independence and Ethical Requirements Detected"
"41","Statment of Evidence","Yes","Statement of Sufficient & Appropriate Evidence Detected"
"42","Emphasis of Matter","Yes","Emphasis of Matter Detected"
"43","Responsibility of Executing Agency","Yes","Responsibility of the Executing Agency Detected"
"44","Auditing Standards","Yes","Auditor's Reference to Auditing Standards Detected"
"45","Description of Work","Yes","Description of Work Sufficiently Defined"
"46","IDB Policy","Yes","Description of IDB Policy Sufficiently Referenced"
"47","Sufficient Evidence","Yes","Statement of Sufficient & Appropriate Evidence Defined"
"48","Objectives of the Audit","Yes"," Description of Objectives of the Audit Sufficiently Defined"
"49","Judgement & Skepticism","Yes"," Statement of Professional Judgement & Skepticism  Sufficiently Defined"
"50","Risks & Fraud/Error","Yes","Evaluation of Risks and Fraud/Error Sufficiently Defined"
"51","Relevant Internal Controls","Yes","Relevant Internal Controls Sufficiently Defined"
"52","Appropriateness of Policies","Yes","Evaluation of Appropriateness of Accounting Policies SUfficiently Defined"
"53","General Presentation","Yes","Evaluation of General Presentation Sufficiently Defined"
"54","Auditor Signature","NA","Proceed to Manual: Auditor Signature Not Clearly Detected"
"55","Auditor's Address","Yes","Auditor's Address Detected: Belize"
"56","AFS Date","Yes","AFS Date of Audit Detected: 2017-04-28"
"57","Cash Statement","Yes","Statement of Cash Reciepts : Present, Statement of Cumulative Investment : Present, Notes to financial statement : Present"
"58","Disbursement Reconciliation","NA","Could not detect value: Proceed to Manual"
"59","Investment Reconciliation","NA","Proceed to Manual: Not a Test Automated by Bot"
"60","Balance Roll","NA","Could not detect value: Proceed to Manual"
"61","Budget vs. Investment","NA","Proceed to Manual: Not a Test Automated by Bot"
"62","Program Description","Yes","Description of the Program Clearly Defined"
"63","Basis of Accounting","Yes","Basis of Accounting Detected: Cash Basis"
"64","Currency","Yes","Currency of Accounting Detected"
"65","Advance of Funds Pending Justification","Yes","Advance of Funds Pending Justification Identified"
"66","Reconciliation of the Advance of Funds","Yes","The Reconciliation of the Advance of Funds in the Notes shared common values with the Cash Receipts Statement or the Statement of Cumulative Investements, including the following numbers: 1899 300000 311087 338830 51769 250371 2625641 2925641 600000 1793867 2093867 4419508 5019508 145236 167423 209022 2716619 32892 47370 102363 103364 14700 19361 2052518 205727 258651 27172 312659 34061 349629 41349 45699 4769137 72871 80262 90978 1975895 1975896 227693 2318463 247085"
"67","Local Counterpart/Additional Funds","Yes","Local Counterpart or Additional Funds Sufficiently Identified"
"68","Adjustments/Errors","NA","Proceed to Manual: No Adjustments or Errors Detected"
"69","Procurement of Goods","Yes","Procurement of Goods, Services Sufficiently Defined"
"70","Total Disbursements by the Bank","Yes","The Total Disbursements in the Notes shared common values with the Cash Receipts Statement or the Statement of Cumulative Investements, including the following numbers: 1899 300000 311087 338830 51769 250371 2625641 2925641 600000 1793867 2093867 4419508 5019508 145236 167423 209022 2716619 32892 47370 102363 103364 14700 19361 2052518 205727 258651 27172 312659 34061 349629 41349 45699 4769137 72871 80262 90978 1975895 1975896 227693 2318463 247085"
"71","Reconciliation of Cash Statement & Cumulative Investments","Yes","The Reconciliation of the Disbursements Made in the Notes shared common values with the Cash Receipts Statement or the Statement of Cumulative Investements, including the following numbers: 801 250371 2625641 2925641 300000 338830 600000 1793867 2093867 4419508 5019508 145236 167423 209022 2716619 32892 47370 102363 103364 14700 19361 2052518 205727 258651 27172 312659 34061 349629 41349 45699 4769137 72871 80262 90978"
"72","Component Level Reconciliation","NA","Proceed to Manual:  Component Level Reconciliation Not Automated by Bot"
"73","Contingencies Reported","NA","Proceed to Manual: No Contingencies Reported or Detected"
"74","Subsequent Events","NA","Proceed to Manual: No Subsequent Events Reported"
"75","Status of Adjustments","NA","Proceed to Manual: Not a Test Automated by Bot"
"76","Note Consistency","Yes","All reconciliation pages had consistencies, including the following numbers: 1899 250371 2625641 2925641 300000 338830 600000 1793867 2093867 4419508 5019508"
"77","Values Check","NA","Proceed to Manual: Not a Test Automated by Bot"
"78","Components to Documents","NA","Proceed to Manual: Not a Test Automated by Bot"
"79","Other Reports","NA","Proceed to Manual: Not a Test Automated by Bot"
